initial_analysis
…
headers <- c("x-api-key" = "eb86e90ed5b97e7e59b61602423419d9477d9d7f7481901ad3cc1b9ad9124271")

res <- getURL(
  "https://marvelrivalsapi.com/api/v1/heroes",
  .opts = list(httpheader = headers, followlocation = TRUE)
)

heroes_df <- fromJSON(res, flatten = TRUE) %>% 
  as_tibble()

heroes_df

# A tibble: 40 × 13
   id    name  real_name imageUrl role  attack_type team  difficulty bio   lore 
   <chr> <chr> <chr>     <chr>    <chr> <chr>       <lis> <chr>      <chr> <chr>
 1 1011  hulk  "Bruce B… /rivals… Vang… Melee Hero… <chr> 4          "Bri… "Cau…
 2 1014  the … "Frank C… /rivals… Duel… Hitscan He… <chr> 1          "Exp… "Cau…
 3 1015  storm "Ororo M… /rivals… Duel… Projectile… <chr> 3          "An … "Bor…
 4 1016  loki  "Loki La… /rivals… Stra… Projectile… <chr> 4          "Wha… "Bor…
 5 1017  huma… "Jonatha… /rivals… Duel… Projectile… <chr> 3          "The… "Tee…
 6 1018  doct… "Stephen… /rivals… Vang… Projectile… <chr> 2          "As … "Res…
 7 1020  mant… "Mantis"  /rivals… Stra… Projectile… <chr> 1          "Man… "Man…
 8 1021  hawk… "Clint B… /rivals… Duel… Projectile… <chr> 4          "Des… "Cli…
 9 1022  capt… "Steven … /rivals… Vang… Melee Hero… <chr> 3          "Enh… "In …
10 1023  rock… "Rocket … /rivals… Stra… Projectile… <chr> 1          "Roc… "He …
# ℹ 30 more rows
# ℹ 3 more variables: transformations <list>, costumes <list>, abilities <list>
…
